{
  "type": "service_account",
  "project_id": "mc-rto",
  "private_key_id": "1fd4e51e094721eb9248e08daca193d2c46fccdd",
  "private_key": "-----BEGIN PRIVATE KEY-----\nMIIEvQIBADANBgkqhkiG9w0BAQEFAASCBKcwggSjAgEAAoIBAQChSQxaP2uFMYKM\nTv0Q+VRsKnGQzQdqrZm/cfruHryRZ46wwCQ0M44DbYF/TJhH3JMY0jBazuywuJws\n+LtlmQmApaDZdtAjLjAEdhk2dVY9YmGReqaJYj4dS7W22uaexMArYT7CPVTZslm4\ndVmmhdsDI1gQNfwMDvbs8PSVdTxaTN6sIOE9Iw+NizGXRa+1dJWI5XuFwFrxrcJ3\nxx7jYM8m2Ug6EjnyQG92xv0iThmutP0ncFEJhQRJAXNUSQG1hmJnHlLlNE9k5wNy\nTSeTi++umy9OAxF1CNCxv0GCbTjiCew4aBmC2NakudqR1boNcByXLlyiFFsTYLGH\nNU3PKGd5AgMBAAECggEAGmKqcCs26lPWsSCM+xVnD8kDyjYYlAWxhOXfMMx7eegw\nqk7MvXN/tKTaDhrYQM1fjSx5t6lphGG3Pw40DiNysAaooVr0IwU/2sL9TfD1OlaZ\ncqTXkNsvITjNEgyOtQOoEpC2pS1Gb9TjI6+jCoCUe1dxZTmHsetSzyF+SeMji/wL\n1YKf9P1emXutgeSKRUJDJpYB9N5DDBAYFft5rfpXM/mefxqMT40A9s9jkex4iCh4\nBi+gMQ/b2oTfvS4m8Zk1ICMIeOON8UnptpRAfYyylqX3bc3ihcuvzhwNKaI+nTXg\nRH7uMqsbs2TfZCyg2CxB9TULQari0OVEARaK6Z3/+QKBgQDUw7zRKiAnPopQwrX2\nQP2i6Xc6fi1iryBy3eM7gOP4oTw6e4f3crSUIdyewn/EX97B18O6It6vfo9dIV9r\n8wB19wRozyUUrUB9a/PiqT/xSbKkU5Q39BwTHk4vYiX97FTbkERCJN2/dg+W20sO\nRB0onafz/ZuT98qJ5iI6cfBfnQKBgQDCD0zCZhiubwQmT7sqSq28fBar1eRqx4uB\nMT8kqo+HkHIx12UuMDHW0sapv01WYR1nynWaYfBRIOllK+5SWS9c+aFkLzOcQnz9\nLzcorFS0pBkkqGIdgHE1ika3zlJgBLPS7+kJ9e2pqEId9kUFSHrcWVgr25znic1Q\nS7A2O6lWjQKBgGHlypyHgJHuIeB1Jxqu3sW2HOkqI6HzqL+Rvzui28KMFdVm/7Ho\n8pPyXLwkDHwEDNAugl3EK6ieWELm1ywpfL3KshmzroEsEq9jG63gaI6SdYNM/bcd\nOEnHuPvuckK7GnSIlg/FPM8a+KNWNdvTlYMZv6zxtUNJUcVPwdIYmRy1AoGBAJ53\nufnhP3RqCZxzbWaatwb82dKWhsE/k8b6/RInCa/tH6Ndvi0ahAhl9H63TiMkiMux\nw5k/Muw9EPpiBmpOk+O7obRa6y1GCiUCQmu/Vihw/Gs36W8n7MqI0TjVjeUE0geF\ni+prXhk14k/vQ+uNhW6csuiVnKpimDtio1GWJLEdAoGAQy+ITOXGTetrovsQpDLb\n/U/c606jvzr6TKjGXeJ+YAaaCeMP8mT6wDznDPyXOS4kiSAR35FO2dng4KVa8c60\nT9JNnu0hynsB/JkYHnU1ofHyO9htkwFNYNUaLtKw9WTHqAPIIwaBC8k0D0iHYb8Z\neLOvfK37htJpHF/xRuXAkVA=\n-----END PRIVATE KEY-----\n",
  "client_email": "rto-calendar@mc-rto.iam.gserviceaccount.com",
  "client_id": "105455459701362796769",
  "auth_uri": "https://accounts.google.com/o/oauth2/auth",
  "token_uri": "https://oauth2.googleapis.com/token",
  "auth_provider_x509_cert_url": "https://www.googleapis.com/oauth2/v1/certs",
  "client_x509_cert_url": "https://www.googleapis.com/robot/v1/metadata/x509/rto-calendar%40mc-rto.iam.gserviceaccount.com"
}
