<?xml version="1.0" encoding="UTF-8"?>
<!DOCTYPE plist PUBLIC "-//Apple//DTD PLIST 1.0//EN" "http://www.apple.com/DTDs/PropertyList-1.0.dtd">
<plist version="1.0">
<dict>
	<key>iconid</key>
	<string>17F361E9-4647-4A34-819F-EB4B0F204BAE</string>
	<key>iconisuserspecified</key>
	<true/>
	<key>items</key>
	<array>
		<dict>
			<key>actionconfig</key>
			<dict>
				<key>url</key>
				<string>https://www.wikipedia.org</string>
			</dict>
			<key>actionuid</key>
			<string>remote.alfred.openurl</string>
			<key>buttoniconid</key>
			<string>1107D639-D285-491A-8159-741652AB5EA4</string>
			<key>buttonlabel</key>
			<string></string>
			<key>itemuid</key>
			<string>4F94B0DF-1F06-49F4-BF3A-B86816B927FD</string>
		</dict>
		<dict>
			<key>actionconfig</key>
			<dict>
				<key>url</key>
				<string>https://twitter.com</string>
			</dict>
			<key>actionuid</key>
			<string>remote.alfred.openurl</string>
			<key>buttoniconid</key>
			<string>5235FC51-27AA-4192-8AD8-782988A56B1F</string>
			<key>buttonlabel</key>
			<string></string>
			<key>itemuid</key>
			<string>C6AF5DB9-6223-47BA-846A-AC6464B30988</string>
		</dict>
		<dict>
			<key>actionconfig</key>
			<dict>
				<key>url</key>
				<string>https://www.facebook.com</string>
			</dict>
			<key>actionuid</key>
			<string>remote.alfred.openurl</string>
			<key>buttoniconid</key>
			<string>0E54B9B4-C4FF-44AE-89F8-9F118FE4E590</string>
			<key>buttonlabel</key>
			<string></string>
			<key>itemuid</key>
			<string>8187950D-A41C-4EC6-9E76-C3FC3C4E6B36</string>
		</dict>
		<dict>
			<key>actionconfig</key>
			<dict>
				<key>url</key>
				<string>https://www.youtube.com</string>
			</dict>
			<key>actionuid</key>
			<string>remote.alfred.openurl</string>
			<key>buttoniconid</key>
			<string>E98BD94F-0F08-415B-8E5A-77336F926576</string>
			<key>buttonlabel</key>
			<string></string>
			<key>itemuid</key>
			<string>B0FBC4A7-4169-431F-A590-329897DAE8A3</string>
		</dict>
		<dict>
			<key>actionconfig</key>
			<dict>
				<key>url</key>
				<string>https://www.apple.com</string>
			</dict>
			<key>actionuid</key>
			<string>remote.alfred.openurl</string>
			<key>buttoniconid</key>
			<string>B779F5FD-8623-46D5-AC3A-148A333412AE</string>
			<key>buttonlabel</key>
			<string></string>
			<key>itemuid</key>
			<string>ACE16241-0AFB-400C-86C7-6A335B38EF14</string>
		</dict>
		<dict>
			<key>actionconfig</key>
			<dict>
				<key>url</key>
				<string>https://www.bbc.co.uk/news</string>
			</dict>
			<key>actionuid</key>
			<string>remote.alfred.openurl</string>
			<key>buttoniconid</key>
			<string>3E40443C-E062-485E-A145-394B7FB65D66</string>
			<key>buttonlabel</key>
			<string></string>
			<key>itemuid</key>
			<string>15346937-EE2A-4836-8133-C60A94DD9688</string>
		</dict>
		<dict>
			<key>actionconfig</key>
			<dict>
				<key>url</key>
				<string>https://www.alfredapp.com</string>
			</dict>
			<key>actionuid</key>
			<string>remote.alfred.openurl</string>
			<key>buttoniconid</key>
			<string>D24DB29A-AE78-486A-8388-5D70EBB01B03</string>
			<key>buttonlabel</key>
			<string></string>
			<key>itemuid</key>
			<string>2C32F7A9-2681-4A66-BA1F-AEE16D57EAB6</string>
		</dict>
		<dict/>
		<dict/>
		<dict/>
		<dict/>
		<dict/>
		<dict>
			<key>actionconfig</key>
			<dict>
				<key>url</key>
				<string>https://www.alfredapp.com/help/</string>
			</dict>
			<key>actionuid</key>
			<string>remote.alfred.openurl</string>
			<key>buttoniconid</key>
			<string>0576F6B5-9306-4386-927E-B195483E8BF0</string>
			<key>buttonlabel</key>
			<string>Alfred Support</string>
			<key>itemuid</key>
			<string>CFA50EC1-C65E-40C8-AF39-A03034604D0D</string>
		</dict>
		<dict>
			<key>actionconfig</key>
			<dict>
				<key>url</key>
				<string>https://www.alfredapp.com/shop/</string>
			</dict>
			<key>actionuid</key>
			<string>remote.alfred.openurl</string>
			<key>buttoniconid</key>
			<string>AE9A7391-CDBE-46B5-B2EE-24DCB1FB24A7</string>
			<key>buttonlabel</key>
			<string>Buy Alfred</string>
			<key>itemuid</key>
			<string>FF477D1C-4113-4A36-A95A-4A8B257B5904</string>
		</dict>
		<dict>
			<key>actionconfig</key>
			<dict>
				<key>resultsubtitle</key>
				<string>Look for help on '{query}'</string>
				<key>resulttitle</key>
				<string>Search Alfred Help</string>
				<key>spaces</key>
				<string>+</string>
				<key>url</key>
				<string>https://www.alfredapp.com/search/?q={query}</string>
				<key>utf8</key>
				<true/>
			</dict>
			<key>actionuid</key>
			<string>remote.alfred.openurl</string>
			<key>buttoniconid</key>
			<string>765C4684-3E25-4B20-92D7-569041D89BFB</string>
			<key>buttonlabel</key>
			<string>Search Help</string>
			<key>itemuid</key>
			<string>2858CAE5-18CB-4AFC-956F-767BF1E701C7</string>
		</dict>
		<dict/>
	</array>
	<key>subtitle</key>
	<string>URLs and Custom Searches</string>
	<key>title</key>
	<string>Bookmarks</string>
</dict>
</plist>
